Projection    GEOGRAPHIC                                                        
Datum         NONE                                                              
Zunits        NO                                                                
Units         DD                                                                
Spheroid      WGS84                                                             
Xshift        0.0000000000                                                      
Yshift        0.0000000000                                                      
Parameters                                                                      
